{
  "compilerOptions": {
    "checkJs": false,
    "resolveJsonModule": true,
    "lib": ["dom", "ES6"],
    "target": "ES6"
  },
  "exclude": [
    "dist",
    "node_modules",
    "build",
    ".vscode",
    ".nuxt",
    "coverage",
    "jspm_packages",
    "tmp",
    "temp",
    "bower_components",
    ".npm",
    ".yarn"
  ],
  "typeAcquisition": {
    "enable": true
  }
}
